Statistics:
gc=False,freq=400_000:draw:10.000ms,show:26.667ms
gc=False,freq=400_000:draw:10.000ms,show:25.000ms
gc=False,freq=1_000_000:draw:20.000ms,show:5.000ms
gc=False,freq=3_400_000:draw:8.333ms,show:5.000ms
gc=False,freq=3_400_000:draw:5.000ms,show:8.333ms
gc=False,freq=5_000_000,OSError: [Errno 5] EIO
----
gc=True,freq=3_400_000,draw:6.667ms,show:6.667ms
gc=True,freq=3_400_000,draw:0.000ms,show:16.667ms
gc=True,freq=3_400_000,draw:11.667ms,show:3.333ms
gc=True,freq=3_400_000,draw:8.333ms,show:6.667ms
gc=True,freq=3_400_000,draw:10.000ms,show:5.000ms
----
gc=True,freq=3400000,draw:6.667ms,show:6.667ms,wall:121.667ms,rept:600
gc=True,freq=3400000,draw:10.000ms,show:6.667ms,wall:120.000ms,rept:600
gc=True,freq=3400000,draw:8.333ms,show:6.667ms,wall:120.000ms,rept:600
gc=True,freq=3400000,draw:11.667ms,show:5.000ms,wall:120.000ms,rept:600
gc=True,freq=3400000,draw:10.000ms,show:6.667ms,wall:120.000ms,rept:600
gc=True,freq=3400000,draw:11.667ms,show:5.000ms,wall:120.000ms,rept:600
gc=True,freq=3400000,draw:10.000ms,show:6.667ms,wall:120.000ms,rept:600
gc=True,freq=3400000,draw:6.667ms,show:6.667ms,wall:120.000ms,rept:600
gc=True,freq=3400000,draw:8.333ms,show:6.667ms,wall:120.000ms,rept:600
gc=True,freq=3400000,draw:8.333ms,show:6.667ms,wall:121.667ms,rept:600
gc=True,freq=3400000,draw:8.333ms,show:6.667ms,wall:121.667ms,rept:600
gc=True,freq=3400000,draw:11.667ms,show:3.333ms,wall:120.000ms,rept:600
gc=True,freq=3400000,draw:11.667ms,show:5.000ms,wall:120.000ms,rept:600
----
gc=False,freq=3400000,draw:8.333ms,show:8.333ms,wall:116.667ms,rept:600
gc=False,freq=3400000,draw:10.000ms,show:6.667ms,wall:115.000ms,rept:600
gc=False,freq=3400000,draw:10.000ms,show:5.000ms,wall:115.000ms,rept:600
gc=False,freq=3400000,draw:8.333ms,show:6.667ms,wall:116.667ms,rept:600
gc=False,freq=3400000,draw:8.333ms,show:6.667ms,wall:116.667ms,rept:600
gc=False,freq=3400000,draw:10.000ms,show:5.000ms,wall:115.000ms,rept:600
gc=False,freq=3400000,draw:11.667ms,show:6.667ms,wall:116.667ms,rept:600
gc=False,freq=3400000,draw:10.000ms,show:6.667ms,wall:116.667ms,rept:600
gc=False,freq=3400000,draw:8.333ms,show:6.667ms,wall:115.000ms,rept:600
gc=False,freq=3400000,draw:10.000ms,show:6.667ms,wall:115.000ms,rept:600
gc=False,freq=3400000,draw:8.333ms,show:5.000ms,wall:116.667ms,rept:600
gc=False,freq=3400000,draw:10.000ms,show:5.000ms,wall:115.000ms,rept:600
----
gc=False,freq=1000000,draw:0.000ms,show:20.000ms,wall:121.667ms,rept:600
gc=False,freq=1000000,draw:5.000ms,show:16.667ms,wall:121.667ms,rept:600
gc=False,freq=1000000,draw:6.667ms,show:13.333ms,wall:123.333ms,rept:600
gc=False,freq=1000000,draw:0.000ms,show:20.000ms,wall:121.667ms,rept:600
gc=False,freq=1000000,draw:1.667ms,show:18.333ms,wall:121.667ms,rept:600
----
gc=False,freq=1000000,draw:16.667ms,show:8.333ms,wall:116.667ms,rept:120
gc=False,freq=1000000,draw:8.333ms,show:8.333ms,wall:116.667ms,rept:120
gc=False,freq=1000000,draw:0.000ms,show:16.667ms,wall:125.000ms,rept:120
gc=False,freq=1000000,draw:0.000ms,show:16.667ms,wall:125.000ms,rept:120
gc=False,freq=1000000,draw:8.333ms,show:8.333ms,wall:125.000ms,rept:120
gc=False,freq=1000000,draw:16.667ms,show:0.000ms,wall:116.667ms,rept:120
----
gc=True,freq=1000000,draw:8.333ms,show:8.333ms,wall:125.000ms,rept:120
gc=True,freq=1000000,draw:8.333ms,show:16.667ms,wall:125.000ms,rept:120
gc=True,freq=1000000,draw:8.333ms,show:8.333ms,wall:133.333ms,rept:120
gc=True,freq=1000000,draw:8.333ms,show:16.667ms,wall:125.000ms,rept:120
gc=True,freq=1000000,draw:8.333ms,show:8.333ms,wall:125.000ms,rept:120
gc=True,freq=1000000,draw:8.333ms,show:8.333ms,wall:125.000ms,rept:120
gc=True,freq=1000000,draw:8.333ms,show:8.333ms,wall:125.000ms,rept:120
gc=True,freq=1000000,draw:8.333ms,show:8.333ms,wall:133.333ms,rept:120
gc=True,freq=1000000,draw:8.333ms,show:8.333ms,wall:125.000ms,rept:120
gc=True,freq=1000000,draw:8.333ms,show:8.333ms,wall:125.000ms,rept:120
gc=True,freq=1000000,draw:16.667ms,show:8.333ms,wall:133.333ms,rept:120
gc=True,freq=1000000,draw:8.333ms,show:8.333ms,wall:125.000ms,rept:120
gc=True,freq=1000000,draw:16.667ms,show:8.333ms,wall:125.000ms,rept:120
gc=True,freq=1000000,draw:8.333ms,show:16.667ms,wall:133.333ms,rept:120
gc=True,freq=1000000,draw:16.667ms,show:8.333ms,wall:125.000ms,rept:120
gc=True,freq=1000000,draw:8.333ms,show:16.667ms,wall:133.333ms,rept:120
gc=True,freq=1000000,draw:16.667ms,show:8.333ms,wall:125.000ms,rept:120
gc=True,freq=1000000,draw:8.333ms,show:16.667ms,wall:125.000ms,rept:120
gc=True,freq=1000000,draw:16.667ms,show:8.333ms,wall:133.333ms,rept:120
gc=True,freq=1000000,draw:8.333ms,show:16.667ms,wall:125.000ms,rept:120
gc=True,freq=1000000,draw:16.667ms,show:8.333ms,wall:125.000ms,rept:120
gc=True,freq=1000000,draw:8.333ms,show:16.667ms,wall:133.333ms,rept:120
gc=True,freq=1000000,draw:16.667ms,show:8.333ms,wall:125.000ms,rept:120
gc=True,freq=1000000,draw:8.333ms,show:16.667ms,wall:133.333ms,rept:120
gc=True,freq=1000000,draw:16.667ms,show:8.333ms,wall:125.000ms,rept:120
gc=True,freq=1000000,draw:8.333ms,show:16.667ms,wall:125.000ms,rept:120
gc=True,freq=1000000,draw:16.667ms,show:8.333ms,wall:133.333ms,rept:120
gc=True,freq=1000000,draw:8.333ms,show:16.667ms,wall:125.000ms,rept:120
gc=True,freq=1000000,draw:16.667ms,show:8.333ms,wall:125.000ms,rept:120
gc=True,freq=1000000,draw:8.333ms,show:16.667ms,wall:133.333ms,rept:120
gc=True,freq=1000000,draw:16.667ms,show:8.333ms,wall:125.000ms,rept:120
gc=True,freq=1000000,draw:0.000ms,show:16.667ms,wall:125.000ms,rept:120
gc=True,freq=1000000,draw:16.667ms,show:8.333ms,wall:125.000ms,rept:120
gc=True,freq=1000000,draw:0.000ms,show:16.667ms,wall:125.000ms,rept:120
gc=True,freq=1000000,draw:16.667ms,show:8.333ms,wall:133.333ms,rept:120
gc=True,freq=1000000,draw:0.000ms,show:16.667ms,wall:125.000ms,rept:120
gc=True,freq=1000000,draw:16.667ms,show:0.000ms,wall:125.000ms,rept:120
----
gc=False,freq=400000,draw:8.333ms,show:33.333ms,wall:133.333ms,rept:120
gc=False,freq=400000,draw:16.667ms,show:25.000ms,wall:141.667ms,rept:120
gc=False,freq=400000,draw:8.333ms,show:16.667ms,wall:133.333ms,rept:120
gc=False,freq=400000,draw:8.333ms,show:25.000ms,wall:133.333ms,rept:120
gc=False,freq=400000,draw:16.667ms,show:16.667ms,wall:141.667ms,rept:120
gc=False,freq=400000,draw:0.000ms,show:33.333ms,wall:133.333ms,rept:120
gc=False,freq=400000,draw:16.667ms,show:25.000ms,wall:141.667ms,rept:120
gc=False,freq=400000,draw:0.000ms,show:33.333ms,wall:133.333ms,rept:120
gc=False,freq=400000,draw:0.000ms,show:33.333ms,wall:141.667ms,rept:120
gc=False,freq=400000,draw:16.667ms,show:25.000ms,wall:133.333ms,rept:120
gc=False,freq=400000,draw:8.333ms,show:33.333ms,wall:141.667ms,rept:120
gc=False,freq=400000,draw:16.667ms,show:25.000ms,wall:133.333ms,rept:120
gc=False,freq=400000,draw:8.333ms,show:25.000ms,wall:141.667ms,rept:120
gc=False,freq=400000,draw:8.333ms,show:33.333ms,wall:133.333ms,rept:120
gc=False,freq=400000,draw:16.667ms,show:25.000ms,wall:141.667ms,rept:120
gc=False,freq=400000,draw:8.333ms,show:33.333ms,wall:133.333ms,rept:120
gc=False,freq=400000,draw:8.333ms,show:33.333ms,wall:133.333ms,rept:120
gc=False,freq=400000,draw:8.333ms,show:25.000ms,wall:141.667ms,rept:120
gc=False,freq=400000,draw:8.333ms,show:25.000ms,wall:133.333ms,rept:120
----
gc=True,freq=400000,draw:16.667ms,show:50.000ms,wall:141.667ms,rept:120
gc=True,freq=400000,draw:16.667ms,show:41.667ms,wall:141.667ms,rept:120
gc=True,freq=400000,draw:16.667ms,show:33.333ms,wall:141.667ms,rept:120
gc=True,freq=400000,draw:16.667ms,show:16.667ms,wall:141.667ms,rept:120
gc=True,freq=400000,draw:16.667ms,show:8.333ms,wall:141.667ms,rept:120
gc=True,freq=400000,draw:16.667ms,show:0.000ms,wall:141.667ms,rept:120
gc=True,freq=400000,draw:8.333ms,show:0.000ms,wall:141.667ms,rept:120
gc=True,freq=400000,draw:0.000ms,show:0.000ms,wall:141.667ms,rept:120
gc=True,freq=400000,draw:0.000ms,show:0.000ms,wall:141.667ms,rept:120
----
type g
gc=False,freq=400000,draw:10.714ms,show:28.571ms,wall:135.714ms,rept:280
gc=False,freq=400000,draw:7.143ms,show:28.571ms,wall:139.286ms,rept:280
gc=False,freq=400000,draw:7.143ms,show:28.571ms,wall:139.286ms,rept:280
gc=False,freq=400000,draw:7.143ms,show:28.571ms,wall:135.714ms,rept:280
gc=False,freq=400000,draw:3.571ms,show:32.143ms,wall:135.714ms,rept:280
gc=False,freq=400000,draw:3.571ms,show:28.571ms,wall:135.714ms,rept:280
gc=False,freq=400000,draw:7.143ms,show:28.571ms,wall:135.714ms,rept:280
gc=False,freq=400000,draw:3.571ms,show:28.571ms,wall:139.286ms,rept:280
gc=False,freq=400000,draw:3.571ms,show:28.571ms,wall:139.286ms,rept:280
gc=False,freq=400000,draw:3.571ms,show:32.143ms,wall:139.286ms,rept:280
gc=False,freq=400000,draw:10.714ms,show:25.000ms,wall:135.714ms,rept:280
gc=False,freq=400000,draw:7.143ms,show:25.000ms,wall:135.714ms,rept:280
gc=False,freq=400000,draw:10.714ms,show:28.571ms,wall:135.714ms,rept:280
gc=False,freq=400000,draw:14.286ms,show:28.571ms,wall:139.286ms,rept:280
gc=False,freq=400000,draw:10.714ms,show:28.571ms,wall:139.286ms,rept:280
gc=False,freq=400000,draw:7.143ms,show:28.571ms,wall:135.714ms,rept:280
gc=False,freq=400000,draw:7.143ms,show:25.000ms,wall:135.714ms,rept:280
gc=False,freq=400000,draw:3.571ms,show:28.571ms,wall:135.714ms,rept:280
gc=False,freq=400000,draw:10.714ms,show:25.000ms,wall:139.286ms,rept:280
gc=False,freq=400000,draw:7.143ms,show:32.143ms,wall:139.286ms,rept:280
gc=False,freq=400000,draw:14.286ms,show:28.571ms,wall:139.286ms,rept:280
gc=False,freq=400000,draw:7.143ms,show:28.571ms,wall:135.714ms,rept:280
----
f1 = simple animation with 4 images and 6 phases (0,1,2,3,2,1)
g1 = animation with 4 images plus mirrors and 14 phases (0,1,2,3,4,5,6,7,6,5,4,3,2,1)
g2 = like g1 but with pre-converting buffer to internal OLED format (from hmsb to vlsb)
----
f1,gc=0,rept:120,freq=400000,draw:8.333ms,show:25.000ms,wall:141.667ms
g1,gc=0,rept:280,freq=400000,draw:7.143ms,show:28.571ms,wall:135.714ms
g2,gc=0,rept:280,freq=400000,draw:0ms,show:28.571ms,wall:125.000ms
f1,gc=0,rept:120,freq=400000,draw:8.333ms,show:25.000ms,wall:141.667ms
g1,gc=0,rept:280,freq=400000,draw:10.714ms,show:28.571ms,wall:135.714ms
g2,gc=0,rept:280,freq=400000,draw:0ms,show:28.571ms,wall:128.571ms
f1,gc=0,rept:120,freq=400000,draw:25.000ms,show:16.667ms,wall:141.667ms
g1,gc=0,rept:280,freq=400000,draw:14.286ms,show:21.429ms,wall:139.286ms
g2,gc=0,rept:280,freq=400000,draw:0ms,show:25.000ms,wall:128.571ms
f1,gc=0,rept:120,freq=400000,draw:0.000ms,show:41.667ms,wall:141.667ms
g1,gc=0,rept:280,freq=400000,draw:14.286ms,show:25.000ms,wall:139.286ms
g2,gc=0,rept:280,freq=400000,draw:0ms,show:32.143ms,wall:128.571ms
g1,gc=0,rept:280,freq=400000,draw:7.143ms,show:28.571ms,wall:139.286ms
g2,gc=0,rept:280,freq=400000,draw:0ms,show:28.571ms,wall:128.571ms
f1,gc=0,rept:120,freq=400000,draw:0.000ms,show:33.333ms,wall:133.333ms
g1,gc=0,rept:280,freq=400000,draw:7.143ms,show:25.000ms,wall:139.286ms
g2,gc=0,rept:280,freq=400000,draw:0ms,show:25.000ms,wall:128.571ms
----
f1,gc=1,rept:120,freq=400000,draw:16.667ms,show:25.000ms,wall:141.667ms
g1,gc=1,rept:280,freq=400000,draw:10.714ms,show:35.714ms,wall:142.857ms
g2,gc=1,rept:280,freq=400000,draw:0ms,show:28.571ms,wall:132.143ms
f1,gc=1,rept:120,freq=400000,draw:16.667ms,show:50.000ms,wall:141.667ms
g1,gc=1,rept:280,freq=400000,draw:7.143ms,show:17.857ms,wall:142.857ms
g2,gc=1,rept:280,freq=400000,draw:0ms,show:32.143ms,wall:132.143ms
f1,gc=1,rept:120,freq=400000,draw:0.000ms,show:0.000ms,wall:141.667ms
g1,gc=1,rept:280,freq=400000,draw:10.714ms,show:28.571ms,wall:142.857ms
g2,gc=1,rept:280,freq=400000,draw:0ms,show:25.000ms,wall:132.143ms
----
f1,gc=0,rept:120,freq=1000000,draw:8.333ms,show:16.667ms,wall:116.667ms
g1,gc=0,rept:280,freq=1000000,draw:10.714ms,show:10.714ms,wall:125.000ms
g2,gc=0,rept:280,freq=1000000,draw:0ms,show:7.143ms,wall:114.286ms
f1,gc=0,rept:120,freq=1000000,draw:16.667ms,show:8.333ms,wall:116.667ms
g1,gc=0,rept:280,freq=1000000,draw:7.143ms,show:17.857ms,wall:121.429ms
g2,gc=0,rept:280,freq=1000000,draw:0ms,show:14.286ms,wall:114.286ms
f1,gc=0,rept:120,freq=1000000,draw:16.667ms,show:8.333ms,wall:116.667ms
g1,gc=0,rept:280,freq=1000000,draw:3.571ms,show:21.429ms,wall:121.429ms
g2,gc=0,rept:280,freq=1000000,draw:0ms,show:14.286ms,wall:114.286ms
f1,gc=0,rept:120,freq=1000000,draw:8.333ms,show:16.667ms,wall:116.667ms
g1,gc=0,rept:280,freq=1000000,draw:3.571ms,show:17.857ms,wall:121.429ms
g2,gc=0,rept:280,freq=1000000,draw:0ms,show:10.714ms,wall:114.286ms
f1,gc=0,rept:120,freq=1000000,draw:8.333ms,show:16.667ms,wall:116.667ms
g1,gc=0,rept:280,freq=1000000,draw:14.286ms,show:7.143ms,wall:121.429ms
g2,gc=0,rept:280,freq=1000000,draw:0ms,show:10.714ms,wall:110.714ms
----
f1,gc=0,rept:120,freq=3400000,draw:8.333ms,show:8.333ms,wall:116.667ms
g1,gc=0,rept:280,freq=3400000,draw:14.286ms,show:3.571ms,wall:114.286ms
g2,gc=0,rept:280,freq=3400000,draw:0ms,show:3.571ms,wall:107.143ms
f1,gc=0,rept:120,freq=3400000,draw:8.333ms,show:8.333ms,wall:116.667ms
g1,gc=0,rept:280,freq=3400000,draw:10.714ms,show:7.143ms,wall:117.857ms
g2,gc=0,rept:280,freq=3400000,draw:0ms,show:0.000ms,wall:107.143ms
f1,gc=0,rept:120,freq=3400000,draw:8.333ms,show:8.333ms,wall:116.667ms
g1,gc=0,rept:280,freq=3400000,draw:14.286ms,show:3.571ms,wall:114.286ms
g2,gc=0,rept:280,freq=3400000,draw:0ms,show:3.571ms,wall:103.571ms
f1,gc=0,rept:120,freq=3400000,draw:8.333ms,show:8.333ms,wall:116.667ms
g1,gc=0,rept:280,freq=3400000,draw:14.286ms,show:7.143ms,wall:114.286ms
g2,gc=0,rept:280,freq=3400000,draw:0ms,show:3.571ms,wall:107.143ms
f1,gc=0,rept:120,freq=3400000,draw:8.333ms,show:8.333ms,wall:116.667ms
g1,gc=0,rept:280,freq=3400000,draw:10.714ms,show:7.143ms,wall:117.857ms
g2,gc=0,rept:280,freq=3400000,draw:0ms,show:10.714ms,wall:107.143ms
----
f1,gc=0,rept:120,freq=3400000,draw:8.333ms,show:8.333ms,wall:116.667ms
g1,gc=0,rept:280,freq=3400000,draw:14.286ms,show:3.571ms,wall:114.286ms
g2,gc=0,rept:280,freq=3400000,draw:0ms,show:3.571ms,wall:107.143ms
f1,gc=0,rept:120,freq=3400000,draw:8.333ms,show:8.333ms,wall:116.667ms
g1,gc=0,rept:280,freq=3400000,draw:10.714ms,show:7.143ms,wall:117.857ms
g2,gc=0,rept:280,freq=3400000,draw:0ms,show:0.000ms,wall:107.143ms
f1,gc=0,rept:120,freq=3400000,draw:8.333ms,show:8.333ms,wall:116.667ms
g1,gc=0,rept:280,freq=3400000,draw:14.286ms,show:3.571ms,wall:114.286ms
g2,gc=0,rept:280,freq=3400000,draw:0ms,show:3.571ms,wall:103.571ms
f1,gc=0,rept:120,freq=3400000,draw:8.333ms,show:8.333ms,wall:116.667ms
g1,gc=0,rept:280,freq=3400000,draw:14.286ms,show:7.143ms,wall:114.286ms
g2,gc=0,rept:280,freq=3400000,draw:0ms,show:3.571ms,wall:107.143ms
----
f1,gc=0,rept:120,freq=400000,draw:0.000ms,show:25.000ms,wall:141.667ms,sleep:100ms
g1,gc=0,rept:280,freq=400000,draw:10.714ms,show:32.143ms,wall:135.714ms,sleep:100ms
g2,gc=0,rept:280,freq=400000,draw:0ms,show:32.143ms,wall:128.571ms,sleep:100ms
f1,gc=0,rept:120,freq=400000,draw:16.667ms,show:16.667ms,wall:141.667ms,sleep:100ms
g1,gc=0,rept:280,freq=400000,draw:14.286ms,show:25.000ms,wall:139.286ms,sleep:100ms
g2,gc=0,rept:280,freq=400000,draw:0ms,show:28.571ms,wall:128.571ms,sleep:100ms
----
f1,gc=0,rept:120,freq=400000,draw:0.000ms,show:33.333ms,wall:33.333ms,sleep:1ms
g1,gc=0,rept:280,freq=400000,draw:10.714ms,show:28.571ms,wall:39.286ms,sleep:1ms
g2,gc=0,rept:280,freq=400000,draw:0ms,show:28.571ms,wall:28.571ms,sleep:1ms
f1,gc=0,rept:120,freq=400000,draw:8.333ms,show:25.000ms,wall:41.667ms,sleep:1ms
g1,gc=0,rept:280,freq=400000,draw:7.143ms,show:28.571ms,wall:35.714ms,sleep:1ms
g2,gc=0,rept:280,freq=400000,draw:0ms,show:28.571ms,wall:28.571ms,sleep:1ms
f1,gc=0,rept:120,freq=400000,draw:8.333ms,show:25.000ms,wall:33.333ms,sleep:1ms
g1,gc=0,rept:280,freq=400000,draw:10.714ms,show:28.571ms,wall:39.286ms,sleep:1ms
g2,gc=0,rept:280,freq=400000,draw:0ms,show:28.571ms,wall:28.571ms,sleep:1ms
f1,gc=0,rept:120,freq=400000,draw:8.333ms,show:33.333ms,wall:41.667ms,sleep:1ms
g1,gc=0,rept:280,freq=400000,draw:10.714ms,show:25.000ms,wall:35.714ms,sleep:1ms
g2,gc=0,rept:280,freq=400000,draw:0ms,show:28.571ms,wall:28.571ms,sleep:1ms
f1,gc=0,rept:120,freq=400000,draw:8.333ms,show:33.333ms,wall:41.667ms,sleep:1ms
g1,gc=0,rept:280,freq=400000,draw:7.143ms,show:32.143ms,wall:39.286ms,sleep:1ms
g2,gc=0,rept:280,freq=400000,draw:0ms,show:28.571ms,wall:28.571ms,sleep:1ms
f1,gc=0,rept:120,freq=400000,draw:8.333ms,show:25.000ms,wall:33.333ms,sleep:1ms
g1,gc=0,rept:280,freq=400000,draw:7.143ms,show:25.000ms,wall:39.286ms,sleep:1ms
g2,gc=0,rept:280,freq=400000,draw:0ms,show:28.571ms,wall:28.571ms,sleep:1ms
f1,gc=0,rept:120,freq=400000,draw:8.333ms,show:33.333ms,wall:41.667ms,sleep:1ms
g1,gc=0,rept:280,freq=400000,draw:10.714ms,show:25.000ms,wall:35.714ms,sleep:1ms
g2,gc=0,rept:280,freq=400000,draw:0ms,show:28.571ms,wall:28.571ms,sleep:1ms
f1,gc=0,rept:120,freq=400000,draw:0.000ms,show:25.000ms,wall:33.333ms,sleep:1ms
g1,gc=0,rept:280,freq=400000,draw:14.286ms,show:25.000ms,wall:39.286ms,sleep:1ms
g2,gc=0,rept:280,freq=400000,draw:0ms,show:28.571ms,wall:28.571ms,sleep:1ms
f1,gc=0,rept:120,freq=400000,draw:8.333ms,show:33.333ms,wall:41.667ms,sleep:1ms
g1,gc=0,rept:280,freq=400000,draw:10.714ms,show:21.429ms,wall:35.714ms,sleep:1ms
g2,gc=0,rept:280,freq=400000,draw:0ms,show:28.571ms,wall:28.571ms,sleep:1ms
f1,gc=0,rept:120,freq=400000,draw:8.333ms,show:33.333ms,wall:41.667ms,sleep:1ms
g1,gc=0,rept:280,freq=400000,draw:10.714ms,show:28.571ms,wall:39.286ms,sleep:1ms
g2,gc=0,rept:280,freq=400000,draw:0ms,show:28.571ms,wall:28.571ms,sleep:1ms
f1,gc=0,rept:120,freq=400000,draw:8.333ms,show:25.000ms,wall:33.333ms,sleep:1ms
g1,gc=0,rept:280,freq=400000,draw:7.143ms,show:32.143ms,wall:39.286ms,sleep:1ms
g2,gc=0,rept:280,freq=400000,draw:0ms,show:28.571ms,wall:28.571ms,sleep:1ms
f1,gc=0,rept:120,freq=400000,draw:8.333ms,show:25.000ms,wall:41.667ms,sleep:1ms
g1,gc=0,rept:280,freq=400000,draw:10.714ms,show:25.000ms,wall:35.714ms,sleep:1ms
g2,gc=0,rept:280,freq=400000,draw:0ms,show:28.571ms,wall:28.571ms,sleep:1ms
f1,gc=0,rept:120,freq=400000,draw:8.333ms,show:25.000ms,wall:33.333ms,sleep:1m
----


